^C:\USERS\SIRFR\SOURCE\REPOS\TP_L2_D1\TP_L2_D1\DEBUG\TP_L2_D1.OBJ
C:\USERS\SIRFR\SOURCE\REPOS\TP_L2_D1\DEBUG\TP_L2_D1.EXE
C:\USERS\SIRFR\SOURCE\REPOS\TP_L2_D1\DEBUG\TP_L2_D1.ILK
C:\USERS\SIRFR\SOURCE\REPOS\TP_L2_D1\DEBUG\TP_L2_D1.PDB
^C:\USERS\SIRFR\ONEDRIVE\DOKUMENTY\TECHNIKI-PROGRAMOWANIA\TP_L2_D1\TP_L2_D1\DEBUG\TP_L2_D1.OBJ
C:\USERS\SIRFR\ONEDRIVE\DOKUMENTY\TECHNIKI-PROGRAMOWANIA\TP_L2_D1\DEBUG\TP_L2_D1.EXE
C:\USERS\SIRFR\ONEDRIVE\DOKUMENTY\TECHNIKI-PROGRAMOWANIA\TP_L2_D1\DEBUG\TP_L2_D1.ILK
C:\USERS\SIRFR\ONEDRIVE\DOKUMENTY\TECHNIKI-PROGRAMOWANIA\TP_L2_D1\DEBUG\TP_L2_D1.PDB
^C:\USERS\SIRFR\SOURCE\REPOS\TECHNIKI PROGRAMOWANIA\TP_L2_D1\TP_L2_D1\DEBUG\TP_L2_D1.OBJ
C:\USERS\SIRFR\SOURCE\REPOS\TECHNIKI PROGRAMOWANIA\TP_L2_D1\DEBUG\TP_L2_D1.EXE
C:\USERS\SIRFR\SOURCE\REPOS\TECHNIKI PROGRAMOWANIA\TP_L2_D1\DEBUG\TP_L2_D1.ILK
C:\USERS\SIRFR\SOURCE\REPOS\TECHNIKI PROGRAMOWANIA\TP_L2_D1\DEBUG\TP_L2_D1.PDB
