^C:\USERS\SIRFR\SOURCE\REPOS\TECHNIKI PROGRAMOWANIA\TP_L3_Z4\TP_L3_Z4\RELEASE\TP_L3_Z4.OBJ|C:\USERS\SIRFR\SOURCE\REPOS\TECHNIKI PROGRAMOWANIA\TP_L3_Z4\TP_L3_Z4\RELEASE\VECTORINT.OBJ
C:\USERS\SIRFR\SOURCE\REPOS\TECHNIKI PROGRAMOWANIA\TP_L3_Z4\RELEASE\TP_L3_Z4.EXE
C:\USERS\SIRFR\SOURCE\REPOS\TECHNIKI PROGRAMOWANIA\TP_L3_Z4\RELEASE\TP_L3_Z4.PDB
