^C:\USERS\SIRFR\SOURCE\REPOS\TECHNIKI PROGRAMOWANIA\TP_L3_Z4\TP_L3_Z4\TP_L3_Z4.CPP|C:\USERS\SIRFR\SOURCE\REPOS\TECHNIKI PROGRAMOWANIA\TP_L3_Z4\TP_L3_Z4\VECTORINT.CPP
C:\USERS\SIRFR\SOURCE\REPOS\TECHNIKI PROGRAMOWANIA\TP_L3_Z4\TP_L3_Z4\DEBUG\VC142.PDB
C:\USERS\SIRFR\SOURCE\REPOS\TECHNIKI PROGRAMOWANIA\TP_L3_Z4\TP_L3_Z4\DEBUG\VC142.IDB
C:\USERS\SIRFR\SOURCE\REPOS\TECHNIKI PROGRAMOWANIA\TP_L3_Z4\TP_L3_Z4\DEBUG\VECTORINT.OBJ
C:\USERS\SIRFR\SOURCE\REPOS\TECHNIKI PROGRAMOWANIA\TP_L3_Z4\TP_L3_Z4\DEBUG\TP_L3_Z4.OBJ
^C:\USERS\SIRFR\SOURCE\REPOS\TECHNIKI PROGRAMOWANIA\TP_L3_Z4\TP_L3_Z4\TP_L3_Z4.CPP
C:\USERS\SIRFR\SOURCE\REPOS\TECHNIKI PROGRAMOWANIA\TP_L3_Z4\TP_L3_Z4\DEBUG\VC142.PDB
^C:\USERS\SIRFR\SOURCE\REPOS\TECHNIKI PROGRAMOWANIA\TP_L3_Z4\TP_L3_Z4\VECTORINT.CPP
C:\USERS\SIRFR\SOURCE\REPOS\TECHNIKI PROGRAMOWANIA\TP_L3_Z4\TP_L3_Z4\DEBUG\VC142.PDB
