^C:\USERS\SIRFR\SOURCE\REPOS\TP_L3_Z1\TP_L3_Z1\TP_L3_Z1.CPP
/c /ZI /JMC /nologo /W3 /WX- /diagnostics:column /sdl /Od /Oy- /D WIN32 /D _DEBUG /D _CONSOLE /D _UNICODE /D UNICODE /Gm- /EHsc /RTC1 /MDd /GS /fp:precise /permissive- /Zc:wchar_t /Zc:forScope /Zc:inline /Fo"DEBUG\\" /Fd"DEBUG\VC142.PDB" /Gd /TP /analyze- /FC C:\USERS\SIRFR\SOURCE\REPOS\TP_L3_Z1\TP_L3_Z1\TP_L3_Z1.CPP
^C:\USERS\SIRFR\SOURCE\REPOS\TECHNIKI PROGRAMOWANIA\TP_L3_Z1\TP_L3_Z1\TP_L3_Z1.CPP
/c /ZI /JMC /nologo /W3 /WX- /diagnostics:column /sdl /Od /Oy- /D WIN32 /D _DEBUG /D _CONSOLE /D _UNICODE /D UNICODE /Gm- /EHsc /RTC1 /MDd /GS /fp:precise /permissive- /Zc:wchar_t /Zc:forScope /Zc:inline /Fo"DEBUG\\" /Fd"DEBUG\VC142.PDB" /Gd /TP /analyze- /FC C:\USERS\SIRFR\SOURCE\REPOS\TECHNIKI PROGRAMOWANIA\TP_L3_Z1\TP_L3_Z1\TP_L3_Z1.CPP
