^C:\Users\SirFr\source\repos\TP_L2_2\TP_L2_2\TP_L2_2.vcxproj
C:\Users\SirFr\source\repos\TP_L2_2\Release\TP_L2_2.ipdb
C:\Users\SirFr\source\repos\TP_L2_2\Release\TP_L2_2.iobj
^C:\Users\SirFr\OneDrive\Dokumenty\techniki-programowania\TP_L2_2\TP_L2_2\TP_L2_2.vcxproj
C:\Users\SirFr\OneDrive\Dokumenty\techniki-programowania\TP_L2_2\Release\TP_L2_2.ipdb
C:\Users\SirFr\OneDrive\Dokumenty\techniki-programowania\TP_L2_2\Release\TP_L2_2.iobj
^C:\Users\SirFr\source\repos\Techniki programowania\TP_L2_2\TP_L2_2\TP_L2_2.vcxproj
C:\Users\SirFr\source\repos\Techniki programowania\TP_L2_2\Release\TP_L2_2.ipdb
C:\Users\SirFr\source\repos\Techniki programowania\TP_L2_2\Release\TP_L2_2.iobj
